…
Aby poszerzyć pogląd na dane, można zobaczyć jak kształtowały się wartości zmiennych w poszczególnych latach (średnie wartości zmiennych dla poszczególnych wartosci zmiennej recr):

```
## # A tibble: 52 x 13
##       recr mean_cfin1 mean_cfin2 mean_chel1 mean_chel2 mean_lcop1
##      <dbl>      <dbl>      <dbl>      <dbl>      <dbl>      <dbl>
##  1 140515.   0.000249     1.79         3.71       31.4       3.91
##  2 148045.   0.           0.727        2.59       33.1       5.35
##  3 163005.   0.218        0.578        3.20       20.2       4.26
##  4 168531.   0.205       19.4         11.2        32.6      11.8 
##  5 186562.   0.101        0.           5.10       15.3       5.72
##  6 204165.   0.0876       0.0256       7.89       33.5       9.02
##  7 208551.   0.184        2.00         1.92       17.9       2.19
##  8 227463.   0.100        0.371        3.88       25.8       5.19
##  9 247178.   0.0400       0.805        6.53       18.6       6.75
## 10 254830.   0.           0.922       75.0        30.4      75.0 
## # ... with 42 more rows, and 7 more variables: mean_lcop2 <dbl>,
## #   mean_fbar <dbl>, mean_cum <dbl>, mean_totaln <dbl>, mean_sst <dbl>,
## #   mean_sal <dbl>, mean_nao <dbl>
```
…
